{
    "machine_info": {
        "node": "homer", 
        "processor": "x86_64", 
        "machine": "x86_64", 
        "python_compiler": "", 
        "python_implementation": "PyPy", 
        "python_version": "2.7.10", 
        "release": "3.13.0-48-generic", 
        "system": "Linux"
    }, 
    "commit_info": {
        "id": "b9436fcd736218b41a5e869d986c13200120973b", 
        "dirty": false
    }, 
    "benchmarks": [
        {
            "group": "getattr", 
            "name": "test_getattr[namedtuple]", 
            "fullname": "capnpy/benchmarks/test_benchmarks.py::test_getattr[namedtuple]", 
            "stats": {
                "min": 3.5539851523935795e-06, 
                "max": 0.00031599949579685926, 
                "mean": 4.318944081703263e-06, 
                "stddev": 2.8887805610345876e-06, 
                "rounds": 14073, 
                "median": 4.241010174155235e-06, 
                "iqr": 1.666485331952572e-07, 
                "q1": 4.224362783133984e-06, 
                "q3": 4.391011316329241e-06, 
                "iqr_outliers": 3084, 
                "stddev_outliers": 32, 
                "outliers": "32;3084", 
                "ld15iqr": 3.975001163780689e-06, 
                "hd15iqr": 4.6425266191363335e-06, 
                "iterations": 2
            }, 
            "options": {
                "disable_gc": false, 
                "timer": "monotonic", 
                "min_rounds": 5, 
                "max_time": 0.1, 
                "min_time": 5e-06, 
                "warmup": 100000
            }
        }, 
        {
            "group": "getattr", 
            "name": "test_getattr[capnpyx]", 
            "fullname": "capnpy/benchmarks/test_benchmarks.py::test_getattr[capnpyx]", 
            "stats": {
                "min": 5.246954970061779e-06, 
                "max": 0.0015333079500123858, 
                "mean": 6.428146961235664e-06, 
                "stddev": 1.3802114799730277e-05, 
                "rounds": 19992, 
                "median": 5.9730373322963715e-06, 
                "iqr": 6.298068910837173e-08, 
                "q1": 5.946960300207138e-06, 
                "q3": 6.00994098931551e-06, 
                "iqr_outliers": 1895, 
                "stddev_outliers": 15, 
                "outliers": "15;1895", 
                "ld15iqr": 5.909008905291557e-06, 
                "hd15iqr": 6.104935891926289e-06, 
                "iterations": 1
            }, 
            "options": {
                "disable_gc": false, 
                "timer": "monotonic", 
                "min_rounds": 5, 
                "max_time": 0.1, 
                "min_time": 5e-06, 
                "warmup": 100000
            }
        }, 
        {
            "group": "getattr", 
            "name": "test_getattr[instance]", 
            "fullname": "capnpy/benchmarks/test_benchmarks.py::test_getattr[instance]", 
            "stats": {
                "min": 3.5584671422839165e-06, 
                "max": 0.0002662775223143399, 
                "mean": 4.381350132232837e-06, 
                "stddev": 3.0438847189934367e-06, 
                "rounds": 14059, 
                "median": 4.242989234626293e-06, 
                "iqr": 1.9505387172102928e-07, 
                "q1": 4.077970515936613e-06, 
                "q3": 4.273024387657642e-06, 
                "iqr_outliers": 1159, 
                "stddev_outliers": 425, 
                "outliers": "425;1159", 
                "ld15iqr": 3.785942681133747e-06, 
                "hd15iqr": 4.5675551518797874e-06, 
                "iterations": 2
            }, 
            "options": {
                "disable_gc": false, 
                "timer": "monotonic", 
                "min_rounds": 5, 
                "max_time": 0.1, 
                "min_time": 5e-06, 
                "warmup": 100000
            }
        }
    ], 
    "datetime": "2015-11-10T17:25:31.369121", 
    "version": "3.0.0"
}
